ProsperOK Quarterly Reporting – DRAFT - SB 108 Prospective Impact Analysis
…
3.3 How many defendants have 4+ non-marijuana simple possession charges in a ten-year timespan?

Finally, SB108 stipulates that the felony charge only comes into effect after 3+ simple possession convictions in a ten year time-span. Therefore, we’ll filter out charges that ended in a dismissal (leaving only convictions and deferred / suspended dispositions) and repeat the analysis with an added 10-year rolling time-frame.

# A tibble: 723 × 2
   count_as_disposed                                                 charge_desc
   <chr>                                                             <chr>      
 1 UNLAWFUL POSSESSION OF CONTROLLED DRUG                            Possession…
 2 POSSESSION OF A CDS COCAINE BASE SCHED II                         Possession…
 3 POSSESSION OF A CDS COCAINE SCHED II                              Possession…
 4 POSSESSION OF A CDS SCHD II                                       Possession…
 5 POSSESSION OF CONTROLLED DANGEROUS SUBSTANCE                      Distributi…
 6 POSSESSION OF CONTROLLED DANGEROUS SUBSTANCE WITHOUT A PRESCRIPT… Possession…
 7 UNLAWFUL POSSESSION OF CONTROLLED DRUG SECOND AND SUBSEQUENT      Possession…
 8 POSSESSION OF A PRECURSOR SUBSTANCE WITH OUT PERMIT ATTACHED      Distributi…
 9 POSSESSION OF CONTROLLED SUBSTANCE                                Possession…
10 POSSESS PRECURSOR SUBSTANCE                                       Distributi…
# ℹ 713 more rows
…
